{
    "UserNotifications.framework": 1,
    "CoreLocation.framework": 1,
    "Security.framework": 1,
    "SystemConfiguration.framework": 2,
    "AudioToolbox.framework": 1,
    "CoreTelephony.framework": 1
}