{
  "prepare_queue": {
    "installed": [],
    "uninstalled": []
  },
  "config_munge": {
    "files": {}
  },
  "installed_plugins": {
    "cordova-plugin-whitelist": {
      "PACKAGE_NAME": "com.example.hello"
    },
    "cordova-plugin-local-notification": {
      "PACKAGE_NAME": "com.example.hello"
    },
    "cordova-plugin-fetch": {
      "PACKAGE_NAME": "com.example.hello"
    },
    "cordova-plugin-vibration": {
      "PACKAGE_NAME": "com.example.hello"
    },
    "cordova-plugin-network-information": {
      "PACKAGE_NAME": "com.example.hello"
    }
  },
  "dependent_plugins": {
    "cordova-plugin-device": {
      "PACKAGE_NAME": "com.example.hello"
    },
    "cordova-plugin-badge": {
      "PACKAGE_NAME": "com.example.hello"
    }
  }
}
