{
  "prepare_queue": {
    "installed": [],
    "uninstalled": []
  },
  "config_munge": {
    "files": {
      "config.xml": {
        "parents": {
          "/*": [
            {
              "xml": "<feature name=\"Device\"><param name=\"browser-package\" value=\"Device\" /></feature>",
              "count": 1
            },
            {
              "xml": "<feature name=\"Badge\"><param name=\"browser-package\" value=\"Badge\" /></feature>",
              "count": 1
            }
          ]
        }
      }
    }
  },
  "installed_plugins": {
    "cordova-plugin-whitelist": {
      "PACKAGE_NAME": "com.example.hello"
    },
    "cordova-plugin-device": {
      "PACKAGE_NAME": "com.example.hello"
    },
    "cordova-plugin-badge": {
      "PACKAGE_NAME": "com.example.hello"
    },
    "cordova-plugin-local-notification": {
      "PACKAGE_NAME": "com.example.hello"
    },
    "cordova-plugin-fetch": {
      "PACKAGE_NAME": "com.example.hello"
    },
    "cordova-plugin-vibration": {
      "PACKAGE_NAME": "com.example.hello"
    },
    "cordova-plugin-network-information": {
      "PACKAGE_NAME": "com.example.hello"
    }
  },
  "dependent_plugins": {},
  "modules": [
    {
      "file": "plugins/cordova-plugin-device/www/device.js",
      "id": "cordova-plugin-device.device",
      "pluginId": "cordova-plugin-device",
      "clobbers": [
        "device"
      ]
    },
    {
      "file": "plugins/cordova-plugin-device/src/browser/DeviceProxy.js",
      "id": "cordova-plugin-device.DeviceProxy",
      "pluginId": "cordova-plugin-device",
      "runs": true
    },
    {
      "file": "plugins/cordova-plugin-badge/www/badge.js",
      "id": "cordova-plugin-badge.Badge",
      "pluginId": "cordova-plugin-badge",
      "clobbers": [
        "cordova.plugins.notification.badge"
      ]
    },
    {
      "file": "plugins/cordova-plugin-badge/src/browser/favico.min.js",
      "id": "cordova-plugin-badge.Badge.Favico",
      "pluginId": "cordova-plugin-badge",
      "clobbers": [
        "cordova.plugins.notification.badge.Favico"
      ]
    },
    {
      "file": "plugins/cordova-plugin-badge/src/browser/BadgeProxy.js",
      "id": "cordova-plugin-badge.Badge.Proxy",
      "pluginId": "cordova-plugin-badge",
      "runs": true
    },
    {
      "file": "plugins/cordova-plugin-local-notification/www/local-notification.js",
      "id": "cordova-plugin-local-notification.LocalNotification",
      "pluginId": "cordova-plugin-local-notification",
      "clobbers": [
        "cordova.plugins.notification.local"
      ]
    },
    {
      "file": "plugins/cordova-plugin-local-notification/www/local-notification-core.js",
      "id": "cordova-plugin-local-notification.LocalNotification.Core",
      "pluginId": "cordova-plugin-local-notification",
      "clobbers": [
        "cordova.plugins.notification.local.core",
        "plugin.notification.local.core"
      ]
    },
    {
      "file": "plugins/cordova-plugin-local-notification/www/local-notification-util.js",
      "id": "cordova-plugin-local-notification.LocalNotification.Util",
      "pluginId": "cordova-plugin-local-notification",
      "merges": [
        "cordova.plugins.notification.local.core",
        "plugin.notification.local.core"
      ]
    },
    {
      "file": "plugins/cordova-plugin-fetch/www/fetch.js",
      "id": "cordova-plugin-fetch.FetchPlugin",
      "pluginId": "cordova-plugin-fetch",
      "clobbers": [
        "cordovaFetch"
      ]
    },
    {
      "file": "plugins/cordova-plugin-vibration/src/browser/Vibration.js",
      "id": "cordova-plugin-vibration.Vibration",
      "pluginId": "cordova-plugin-vibration",
      "merges": [
        "navigator"
      ]
    },
    {
      "file": "plugins/cordova-plugin-vibration/www/vibration.js",
      "id": "cordova-plugin-vibration.notification",
      "pluginId": "cordova-plugin-vibration",
      "merges": [
        "navigator"
      ]
    },
    {
      "file": "plugins/cordova-plugin-network-information/www/network.js",
      "id": "cordova-plugin-network-information.network",
      "pluginId": "cordova-plugin-network-information",
      "clobbers": [
        "navigator.connection",
        "navigator.network.connection"
      ]
    },
    {
      "file": "plugins/cordova-plugin-network-information/www/Connection.js",
      "id": "cordova-plugin-network-information.Connection",
      "pluginId": "cordova-plugin-network-information",
      "clobbers": [
        "Connection"
      ]
    },
    {
      "file": "plugins/cordova-plugin-network-information/src/browser/network.js",
      "id": "cordova-plugin-network-information.NetworkInfoProxy",
      "pluginId": "cordova-plugin-network-information",
      "runs": true
    }
  ],
  "plugin_metadata": {
    "cordova-plugin-whitelist": "1.3.4",
    "cordova-plugin-device": "2.0.3",
    "cordova-plugin-badge": "0.8.8",
    "cordova-plugin-local-notification": "0.9.0-beta.2",
    "cordova-plugin-fetch": "0.1.0",
    "cordova-plugin-vibration": "3.1.1",
    "cordova-plugin-network-information": "2.0.2"
  }
}
